DSC 3091- Advanced Statistics Applications I
…
tibbles the variant of the data frame.

Data import in rectangular formats.

tidy data a consistent way of storing your data that makes transformation, visualisation, and modelling easier.

Tibbles

Tibbles are data frames, which makes easier for data wrangling. Tibbles can be created using the tibble package. Tibbles have an enhanced print() method which can be used with large datasets containing complex objects.

library(tibble)
as_tibble(iris)

# A tibble: 150 x 5
   Sepal.Length Sepal.Width Petal.Length Petal.Width Species
          <dbl>       <dbl>        <dbl>       <dbl> <fct>  
 1          5.1         3.5          1.4         0.2 setosa 
 2          4.9         3            1.4         0.2 setosa 
 3          4.7         3.2          1.3         0.2 setosa 
 4          4.6         3.1          1.5         0.2 setosa 
 5          5           3.6          1.4         0.2 setosa 
 6          5.4         3.9          1.7         0.4 setosa 
 7          4.6         3.4          1.4         0.3 setosa 
 8          5           3.4          1.5         0.2 setosa 
 9          4.4         2.9          1.4         0.2 setosa 
10          4.9         3.1          1.5         0.1 setosa 
# ... with 140 more rows
# i Use `print(n = ...)` to see more rows
…
Tibbles vs. data.frame

Tibbles shows only the first 10 rows, and all the columns fit on screen, which makes it much easier to work with large data. In addition to its name, each column reports its data type.

tibble(
  a = lubridate::now(),
  b = lubridate::today(),
  c = 1:1e3,
  d = runif(1e3),
  e = sample(letters, 1e3, replace = TRUE)
)

# A tibble: 1,000 x 5
   a                   b              c     d e    
   <dttm>              <date>     <int> <dbl> <chr>
 1 2022-08-10 11:32:49 2022-08-10     1 0.302 i    
 2 2022-08-10 11:32:49 2022-08-10     2 0.619 g    
 3 2022-08-10 11:32:49 2022-08-10     3 0.475 u    
 4 2022-08-10 11:32:49 2022-08-10     4 0.387 b    
 5 2022-08-10 11:32:49 2022-08-10     5 0.468 s    
 6 2022-08-10 11:32:49 2022-08-10     6 0.723 q    
 7 2022-08-10 11:32:49 2022-08-10     7 0.416 m    
 8 2022-08-10 11:32:49 2022-08-10     8 0.607 z    
 9 2022-08-10 11:32:49 2022-08-10     9 0.893 z    
10 2022-08-10 11:32:49 2022-08-10    10 0.994 a    
# ... with 990 more rows
# i Use `print(n = ...)` to see more rows

Tibbles vs. data.frame

Consider the below flights data set which shows on-time data for all flights that departed NYC in 2013, in nycflights13 package. If you want to see only 5 observations, use the below code. The option width = Inf shows all variables.

nycflights13::flights %>% 
  print(n = 5, width = Inf)

# A tibble: 336,776 x 19
   year month   day dep_time sched_dep_time dep_delay arr_time sched_arr_time
  <int> <int> <int>    <int>          <int>     <dbl>    <int>          <int>
1  2013     1     1      517            515         2      830            819
2  2013     1     1      533            529         4      850            830
3  2013     1     1      542            540         2      923            850
4  2013     1     1      544            545        -1     1004           1022
5  2013     1     1      554            600        -6      812            837
  arr_delay carrier flight tailnum origin dest  air_time distance  hour minute
      <dbl> <chr>    <int> <chr>   <chr>  <chr>    <dbl>    <dbl> <dbl>  <dbl>
1        11 UA        1545 N14228  EWR    IAH        227     1400     5     15
2        20 UA        1714 N24211  LGA    IAH        227     1416     5     29
3        33 AA        1141 N619AA  JFK    MIA        160     1089     5     40
4       -18 B6         725 N804JB  JFK    BQN        183     1576     5     45
5       -25 DL         461 N668DN  LGA    ATL        116      762     6      0
  time_hour          
  <dttm>             
1 2013-01-01 05:00:00
2 2013-01-01 05:00:00
3 2013-01-01 05:00:00
4 2013-01-01 05:00:00
5 2013-01-01 06:00:00
# ... with 336,771 more rows
# i Use `print(n = ...)` to see more rows

Tibbles vs. data.frame

To see the data in the default output of a tibble, use the below codes:

options(tibble.width = Inf) 
nycflights13::flights %>% 
  print()

# A tibble: 336,776 x 19
    year month   day dep_time sched_dep_time dep_delay arr_time sched_arr_time
   <int> <int> <int>    <int>          <int>     <dbl>    <int>          <int>
 1  2013     1     1      517            515         2      830            819
 2  2013     1     1      533            529         4      850            830
 3  2013     1     1      542            540         2      923            850
 4  2013     1     1      544            545        -1     1004           1022
 5  2013     1     1      554            600        -6      812            837
 6  2013     1     1      554            558        -4      740            728
 7  2013     1     1      555            600        -5      913            854
 8  2013     1     1      557            600        -3      709            723
 9  2013     1     1      557            600        -3      838            846
10  2013     1     1      558            600        -2      753            745
   arr_delay carrier flight tailnum origin dest  air_time distance  hour minute
       <dbl> <chr>    <int> <chr>   <chr>  <chr>    <dbl>    <dbl> <dbl>  <dbl>
 1        11 UA        1545 N14228  EWR    IAH        227     1400     5     15
 2        20 UA        1714 N24211  LGA    IAH        227     1416     5     29
 3        33 AA        1141 N619AA  JFK    MIA        160     1089     5     40
 4       -18 B6         725 N804JB  JFK    BQN        183     1576     5     45
 5       -25 DL         461 N668DN  LGA    ATL        116      762     6      0
 6        12 UA        1696 N39463  EWR    ORD        150      719     5     58
 7        19 B6         507 N516JB  EWR    FLL        158     1065     6      0
 8       -14 EV        5708 N829AS  LGA    IAD         53      229     6      0
 9        -8 B6          79 N593JB  JFK    MCO        140      944     6      0
10         8 AA         301 N3ALAA  LGA    ORD        138      733     6      0
   time_hour          
   <dttm>             
 1 2013-01-01 05:00:00
 2 2013-01-01 05:00:00
 3 2013-01-01 05:00:00
 4 2013-01-01 05:00:00
 5 2013-01-01 06:00:00
 6 2013-01-01 05:00:00
 7 2013-01-01 06:00:00
 8 2013-01-01 06:00:00
 9 2013-01-01 06:00:00
10 2013-01-01 06:00:00
# ... with 336,766 more rows
# i Use `print(n = ...)` to see more rows
…
