DSC 3091- Advanced Statistics Applications I
…
join()
Joining data tables
JOIN

Data manipulation with dplyr

To understand these functions, we use the starwars data set in the dplyr package:

library(dplyr)
library(tibble)
as_tibble(starwars)

# A tibble: 87 x 14
   name        height  mass hair_~1 skin_~2 eye_c~3 birth~4 sex   gender homew~5
   <chr>        <int> <dbl> <chr>   <chr>   <chr>     <dbl> <chr> <chr>  <chr>  
 1 Luke Skywa~    172    77 blond   fair    blue       19   male  mascu~ Tatooi~
 2 C-3PO          167    75 <NA>    gold    yellow    112   none  mascu~ Tatooi~
 3 R2-D2           96    32 <NA>    white,~ red        33   none  mascu~ Naboo  
 4 Darth Vader    202   136 none    white   yellow     41.9 male  mascu~ Tatooi~
 5 Leia Organa    150    49 brown   light   brown      19   fema~ femin~ Aldera~
 6 Owen Lars      178   120 brown,~ light   blue       52   male  mascu~ Tatooi~
 7 Beru White~    165    75 brown   light   blue       47   fema~ femin~ Tatooi~
 8 R5-D4           97    32 <NA>    white,~ red        NA   none  mascu~ Tatooi~
 9 Biggs Dark~    183    84 black   light   brown      24   male  mascu~ Tatooi~
10 Obi-Wan Ke~    182    77 auburn~ fair    blue-g~    57   male  mascu~ Stewjon
# ... with 77 more rows, 4 more variables: species <chr>, films <list>,
#   vehicles <list>, starships <list>, and abbreviated variable names
#   1: hair_color, 2: skin_color, 3: eye_color, 4: birth_year, 5: homeworld
# i Use `print(n = ...)` to see more rows, and `colnames()` to see all variable names
…
Data manipulation with dplyr

Now we use select() function to select some specific variables.

starwars %>% 
  select(name, ends_with("color"))

# A tibble: 87 x 4
   name               hair_color    skin_color  eye_color
   <chr>              <chr>         <chr>       <chr>    
 1 Luke Skywalker     blond         fair        blue     
 2 C-3PO              <NA>          gold        yellow   
 3 R2-D2              <NA>          white, blue red      
 4 Darth Vader        none          white       yellow   
 5 Leia Organa        brown         light       brown    
 6 Owen Lars          brown, grey   light       blue     
 7 Beru Whitesun lars brown         light       blue     
 8 R5-D4              <NA>          white, red  red      
 9 Biggs Darklighter  black         light       brown    
10 Obi-Wan Kenobi     auburn, white fair        blue-gray
# ... with 77 more rows
# i Use `print(n = ...)` to see more rows

Data manipulation with dplyr

To create a new variable called bmi using the existing variables mass and height, we use mutate() function, and select some specific variables.

starwars %>% 
  mutate(name, bmi = mass / ((height / 100)  ^ 2)) %>%
  select(name:mass, bmi)

# A tibble: 87 x 4
   name               height  mass   bmi
   <chr>               <int> <dbl> <dbl>
 1 Luke Skywalker        172    77  26.0
 2 C-3PO                 167    75  26.9
 3 R2-D2                  96    32  34.7
 4 Darth Vader           202   136  33.3
 5 Leia Organa           150    49  21.8
 6 Owen Lars             178   120  37.9
 7 Beru Whitesun lars    165    75  27.5
 8 R5-D4                  97    32  34.0
 9 Biggs Darklighter     183    84  25.1
10 Obi-Wan Kenobi        182    77  23.2
# ... with 77 more rows
# i Use `print(n = ...)` to see more rows

Data manipulation with dplyr

Use arrange() function to arrange the variable mass in ascending order as arrange(mass), and to arrange in descending order, use arrange(desc(mass)) as below:

starwars %>% 
  arrange(desc(mass))

# A tibble: 87 x 14
   name        height  mass hair_~1 skin_~2 eye_c~3 birth~4 sex   gender homew~5
   <chr>        <int> <dbl> <chr>   <chr>   <chr>     <dbl> <chr> <chr>  <chr>  
 1 Jabba Desi~    175  1358 <NA>    green-~ orange    600   herm~ mascu~ Nal Hu~
 2 Grievous       216   159 none    brown,~ green,~    NA   male  mascu~ Kalee  
 3 IG-88          200   140 none    metal   red        15   none  mascu~ <NA>   
 4 Darth Vader    202   136 none    white   yellow     41.9 male  mascu~ Tatooi~
 5 Tarfful        234   136 brown   brown   blue       NA   male  mascu~ Kashyy~
 6 Owen Lars      178   120 brown,~ light   blue       52   male  mascu~ Tatooi~
 7 Bossk          190   113 none    green   red        53   male  mascu~ Trando~
 8 Chewbacca      228   112 brown   unknown blue      200   male  mascu~ Kashyy~
 9 Jek Tono P~    180   110 brown   fair    blue       NA   male  mascu~ Bestin~
10 Dexter Jet~    198   102 none    brown   yellow     NA   male  mascu~ Ojom   
# ... with 77 more rows, 4 more variables: species <chr>, films <list>,
#   vehicles <list>, starships <list>, and abbreviated variable names
#   1: hair_color, 2: skin_color, 3: eye_color, 4: birth_year, 5: homeworld
# i Use `print(n = ...)` to see more rows, and `colnames()` to see all variable names

Data manipulation with dplyr

Now, we use summarise() function to get some summaries of data.

starwars %>%
    group_by(species) %>%
  summarise(
    n = n(),
    mean_mass = mean(mass, na.rm = TRUE))

# A tibble: 38 x 3
   species       n mean_mass
   <chr>     <int>     <dbl>
 1 Aleena        1      15  
 2 Besalisk      1     102  
 3 Cerean        1      82  
 4 Chagrian      1     NaN  
 5 Clawdite      1      55  
 6 Droid         6      69.8
 7 Dug           1      40  
 8 Ewok          1      20  
 9 Geonosian     1      80  
10 Gungan        3      74  
# ... with 28 more rows
# i Use `print(n = ...)` to see more rows
…
(j) Calculate count and mean of variables Y2011 and Y2012 by variable Index.

(k) Calculate the variable rate=Y2011/Y2012.

(l) Calculate the cumulative sum of Y2011 and assign it to total, and select variables index, Y2011 and total.

Class works

library(readr)
mydata=read_csv("C:/D/Lecture Notes/Multivariate methods/categorical data analysis/lecture9/sampledata.csv")
library(tibble)
mydata=as.tibble(mydata)
mydata

# A tibble: 51 x 16
   Index State     Y2002  Y2003  Y2004  Y2005  Y2006  Y2007  Y2008  Y2009  Y2010
   <chr> <chr>     <dbl>  <dbl>  <dbl>  <dbl>  <dbl>  <dbl>  <dbl>  <dbl>  <dbl>
 1 A     Alabama  1.30e6 1.32e6 1.12e6 1.49e6 1.11e6 1.44e6 1.95e6 1.94e6 1.24e6
 2 A     Alaska   1.17e6 1.96e6 1.82e6 1.45e6 1.86e6 1.47e6 1.55e6 1.44e6 1.63e6
 3 A     Arizona  1.74e6 1.97e6 1.38e6 1.78e6 1.10e6 1.11e6 1.75e6 1.55e6 1.30e6
 4 A     Arkansas 1.49e6 1.99e6 1.12e6 1.95e6 1.67e6 1.80e6 1.19e6 1.63e6 1.67e6
 5 C     Califor~ 1.69e6 1.68e6 1.89e6 1.48e6 1.74e6 1.81e6 1.49e6 1.66e6 1.62e6
 6 C     Colorado 1.34e6 1.88e6 1.89e6 1.24e6 1.87e6 1.81e6 1.88e6 1.75e6 1.91e6
 7 C     Connect~ 1.61e6 1.23e6 1.18e6 1.52e6 1.84e6 1.98e6 1.76e6 1.97e6 1.97e6
 8 D     Delaware 1.33e6 1.27e6 1.71e6 1.40e6 1.44e6 1.30e6 1.76e6 1.55e6 1.37e6
 9 D     Distric~ 1.11e6 1.99e6 1.37e6 1.83e6 1.80e6 1.60e6 1.19e6 1.74e6 1.71e6
10 F     Florida  1.96e6 1.47e6 1.42e6 1.36e6 1.34e6 1.28e6 1.76e6 1.82e6 1.20e6
# ... with 41 more rows, and 5 more variables: Y2011 <dbl>, Y2012 <dbl>,
#   Y2013 <dbl>, Y2014 <dbl>, Y2015 <dbl>
# i Use `print(n = ...)` to see more rows, and `colnames()` to see all variable names

(a) Selects variables “Index” to “Y2006”.

library(dplyr)
mydata %>%
  select (Index:Y2006)

# A tibble: 51 x 7
   Index State                  Y2002   Y2003   Y2004   Y2005   Y2006
   <chr> <chr>                  <dbl>   <dbl>   <dbl>   <dbl>   <dbl>
 1 A     Alabama              1296530 1317711 1118631 1492583 1107408
 2 A     Alaska               1170302 1960378 1818085 1447852 1861639
 3 A     Arizona              1742027 1968140 1377583 1782199 1102568
 4 A     Arkansas             1485531 1994927 1119299 1947979 1669191
 5 C     California           1685349 1675807 1889570 1480280 1735069
 6 C     Colorado             1343824 1878473 1886149 1236697 1871471
 7 C     Connecticut          1610512 1232844 1181949 1518933 1841266
 8 D     Delaware             1330403 1268673 1706751 1403759 1441351
 9 D     District of Columbia 1111437 1993741 1374643 1827949 1803852
10 F     Florida              1964626 1468852 1419738 1362787 1339608
# ... with 41 more rows
# i Use `print(n = ...)` to see more rows

(b) Drop variables “Index”, and “State” variables from data.

library(dplyr)
mydata %>%
  select (-Index, -State)

# A tibble: 51 x 14
     Y2002  Y2003  Y2004  Y2005  Y2006  Y2007  Y2008  Y2009  Y2010  Y2011  Y2012
     <dbl>  <dbl>  <dbl>  <dbl>  <dbl>  <dbl>  <dbl>  <dbl>  <dbl>  <dbl>  <dbl>
 1 1296530 1.32e6 1.12e6 1.49e6 1.11e6 1.44e6 1.95e6 1.94e6 1.24e6 1.44e6 1.19e6
 2 1170302 1.96e6 1.82e6 1.45e6 1.86e6 1.47e6 1.55e6 1.44e6 1.63e6 1.23e6 1.51e6
 3 1742027 1.97e6 1.38e6 1.78e6 1.10e6 1.11e6 1.75e6 1.55e6 1.30e6 1.13e6 1.91e6
 4 1485531 1.99e6 1.12e6 1.95e6 1.67e6 1.80e6 1.19e6 1.63e6 1.67e6 1.93e6 1.22e6
 5 1685349 1.68e6 1.89e6 1.48e6 1.74e6 1.81e6 1.49e6 1.66e6 1.62e6 1.64e6 1.92e6
 6 1343824 1.88e6 1.89e6 1.24e6 1.87e6 1.81e6 1.88e6 1.75e6 1.91e6 1.67e6 1.49e6
 7 1610512 1.23e6 1.18e6 1.52e6 1.84e6 1.98e6 1.76e6 1.97e6 1.97e6 1.95e6 1.23e6
 8 1330403 1.27e6 1.71e6 1.40e6 1.44e6 1.30e6 1.76e6 1.55e6 1.37e6 1.32e6 1.98e6
 9 1111437 1.99e6 1.37e6 1.83e6 1.80e6 1.60e6 1.19e6 1.74e6 1.71e6 1.35e6 1.98e6
10 1964626 1.47e6 1.42e6 1.36e6 1.34e6 1.28e6 1.76e6 1.82e6 1.20e6 1.50e6 1.13e6
# ... with 41 more rows, and 3 more variables: Y2013 <dbl>, Y2014 <dbl>,
#   Y2015 <dbl>
# i Use `print(n = ...)` to see more rows, and `colnames()` to see all variable names
…
(f) Filter rows ‘A’ and ‘C’ from ‘Index’ or income greater than 1.2 million in Year 2006.

library(dplyr)
mydata %>%
  filter(Index %in% c("A", "C")| Y2006 >= 1200000)

# A tibble: 47 x 16
   Index State     Y2002  Y2003  Y2004  Y2005  Y2006  Y2007  Y2008  Y2009  Y2010
   <chr> <chr>     <dbl>  <dbl>  <dbl>  <dbl>  <dbl>  <dbl>  <dbl>  <dbl>  <dbl>
 1 A     Alabama  1.30e6 1.32e6 1.12e6 1.49e6 1.11e6 1.44e6 1.95e6 1.94e6 1.24e6
 2 A     Alaska   1.17e6 1.96e6 1.82e6 1.45e6 1.86e6 1.47e6 1.55e6 1.44e6 1.63e6
 3 A     Arizona  1.74e6 1.97e6 1.38e6 1.78e6 1.10e6 1.11e6 1.75e6 1.55e6 1.30e6
 4 A     Arkansas 1.49e6 1.99e6 1.12e6 1.95e6 1.67e6 1.80e6 1.19e6 1.63e6 1.67e6
 5 C     Califor~ 1.69e6 1.68e6 1.89e6 1.48e6 1.74e6 1.81e6 1.49e6 1.66e6 1.62e6
 6 C     Colorado 1.34e6 1.88e6 1.89e6 1.24e6 1.87e6 1.81e6 1.88e6 1.75e6 1.91e6
 7 C     Connect~ 1.61e6 1.23e6 1.18e6 1.52e6 1.84e6 1.98e6 1.76e6 1.97e6 1.97e6
 8 D     Delaware 1.33e6 1.27e6 1.71e6 1.40e6 1.44e6 1.30e6 1.76e6 1.55e6 1.37e6
 9 D     Distric~ 1.11e6 1.99e6 1.37e6 1.83e6 1.80e6 1.60e6 1.19e6 1.74e6 1.71e6
10 F     Florida  1.96e6 1.47e6 1.42e6 1.36e6 1.34e6 1.28e6 1.76e6 1.82e6 1.20e6
# ... with 37 more rows, and 5 more variables: Y2011 <dbl>, Y2012 <dbl>,
#   Y2013 <dbl>, Y2014 <dbl>, Y2015 <dbl>
# i Use `print(n = ...)` to see more rows, and `colnames()` to see all variable names
…
# A tibble: 1 x 5
  mean2011 mean2012 median2011 median2012 na.rm
     <dbl>    <dbl>      <dbl>      <dbl> <lgl>
1 1574968. 1591135.    1575533    1643855 TRUE 

(i) Arrange variable Y2011 by variable Index in ascending order.

library(dplyr)
mydata %>%
  arrange(Index, Y2011)

# A tibble: 51 x 16
   Index State     Y2002  Y2003  Y2004  Y2005  Y2006  Y2007  Y2008  Y2009  Y2010
   <chr> <chr>     <dbl>  <dbl>  <dbl>  <dbl>  <dbl>  <dbl>  <dbl>  <dbl>  <dbl>
 1 A     Arizona  1.74e6 1.97e6 1.38e6 1.78e6 1.10e6 1.11e6 1.75e6 1.55e6 1.30e6
 2 A     Alaska   1.17e6 1.96e6 1.82e6 1.45e6 1.86e6 1.47e6 1.55e6 1.44e6 1.63e6
 3 A     Alabama  1.30e6 1.32e6 1.12e6 1.49e6 1.11e6 1.44e6 1.95e6 1.94e6 1.24e6
 4 A     Arkansas 1.49e6 1.99e6 1.12e6 1.95e6 1.67e6 1.80e6 1.19e6 1.63e6 1.67e6
 5 C     Califor~ 1.69e6 1.68e6 1.89e6 1.48e6 1.74e6 1.81e6 1.49e6 1.66e6 1.62e6
 6 C     Colorado 1.34e6 1.88e6 1.89e6 1.24e6 1.87e6 1.81e6 1.88e6 1.75e6 1.91e6
 7 C     Connect~ 1.61e6 1.23e6 1.18e6 1.52e6 1.84e6 1.98e6 1.76e6 1.97e6 1.97e6
 8 D     Delaware 1.33e6 1.27e6 1.71e6 1.40e6 1.44e6 1.30e6 1.76e6 1.55e6 1.37e6
 9 D     Distric~ 1.11e6 1.99e6 1.37e6 1.83e6 1.80e6 1.60e6 1.19e6 1.74e6 1.71e6
10 F     Florida  1.96e6 1.47e6 1.42e6 1.36e6 1.34e6 1.28e6 1.76e6 1.82e6 1.20e6
# ... with 41 more rows, and 5 more variables: Y2011 <dbl>, Y2012 <dbl>,
#   Y2013 <dbl>, Y2014 <dbl>, Y2015 <dbl>
# i Use `print(n = ...)` to see more rows, and `colnames()` to see all variable names
…
(k) Calculate the variable rate=Y2011/Y2012.

library(dplyr)
mydata %>%
  mutate(rate=Y2011/Y2012)

# A tibble: 51 x 17
   Index State     Y2002  Y2003  Y2004  Y2005  Y2006  Y2007  Y2008  Y2009  Y2010
   <chr> <chr>     <dbl>  <dbl>  <dbl>  <dbl>  <dbl>  <dbl>  <dbl>  <dbl>  <dbl>
 1 A     Alabama  1.30e6 1.32e6 1.12e6 1.49e6 1.11e6 1.44e6 1.95e6 1.94e6 1.24e6
 2 A     Alaska   1.17e6 1.96e6 1.82e6 1.45e6 1.86e6 1.47e6 1.55e6 1.44e6 1.63e6
 3 A     Arizona  1.74e6 1.97e6 1.38e6 1.78e6 1.10e6 1.11e6 1.75e6 1.55e6 1.30e6
 4 A     Arkansas 1.49e6 1.99e6 1.12e6 1.95e6 1.67e6 1.80e6 1.19e6 1.63e6 1.67e6
 5 C     Califor~ 1.69e6 1.68e6 1.89e6 1.48e6 1.74e6 1.81e6 1.49e6 1.66e6 1.62e6
 6 C     Colorado 1.34e6 1.88e6 1.89e6 1.24e6 1.87e6 1.81e6 1.88e6 1.75e6 1.91e6
 7 C     Connect~ 1.61e6 1.23e6 1.18e6 1.52e6 1.84e6 1.98e6 1.76e6 1.97e6 1.97e6
 8 D     Delaware 1.33e6 1.27e6 1.71e6 1.40e6 1.44e6 1.30e6 1.76e6 1.55e6 1.37e6
 9 D     Distric~ 1.11e6 1.99e6 1.37e6 1.83e6 1.80e6 1.60e6 1.19e6 1.74e6 1.71e6
10 F     Florida  1.96e6 1.47e6 1.42e6 1.36e6 1.34e6 1.28e6 1.76e6 1.82e6 1.20e6
# ... with 41 more rows, and 6 more variables: Y2011 <dbl>, Y2012 <dbl>,
#   Y2013 <dbl>, Y2014 <dbl>, Y2015 <dbl>, rate <dbl>
# i Use `print(n = ...)` to see more rows, and `colnames()` to see all variable names

(l) Calculate the cumulative sum of Y2011 and assign it to total, and select variables index, Y2011 and total.

library(dplyr)
mydata %>%
  mutate(total=cumsum(Y2011))%>% 
  select(Index,Y2011, total)

# A tibble: 51 x 3
   Index   Y2011    total
   <chr>   <dbl>    <dbl>
 1 A     1440756  1440756
 2 A     1230866  2671622
 3 A     1130709  3802331
 4 A     1928238  5730569
 5 C     1639670  7370239
 6 C     1665877  9036116
 7 C     1945524 10981640
 8 D     1318669 12300309
 9 D     1353449 13653758
10 F     1497051 15150809
# ... with 41 more rows
# i Use `print(n = ...)` to see more rows
…
